[gd_resource type="ShaderMaterial" load_steps=3 format=2]

[ext_resource path="res://minigames/FFA/knock_off/water.shader" type="Shader" id=1]
[ext_resource path="res://minigames/FFA/knock_off/water_diffuse.png" type="Texture" id=2]





[resource]

render_priority = 0
shader = ExtResource( 1 )
shader_param/amplitude = null
shader_param/frequency = null
shader_param/time_factor = null
shader_param/texture_scale = null
shader_param/texturemap = ExtResource( 2 )
_sections_unfolded = [ "shader_param" ]

